index,bbio,cep,directory,usage
1,43.2,61.1,1957909,Logements collectifs
2,40.2,58.4,1957909,Logements collectifs
3,38.9,58.5,1957909,Logements collectifs
5,52.6,46.8,1976132,Logements collectifs
6,46,56.5,1980102,Logements collectifs
7,38.4,46.3,1980960,Logements collectifs
8,65.4,73.4,1985719,Logements collectifs
9,63.6,67.6,1985720,Logements collectifs
10,67.9,58.7,1985721,Logements collectifs
11,65.6,63.3,1985724,Logements collectifs
12,31.7,69.5,1991185,Logements collectifs
13,25.3,48.5,1996716,Logements collectifs
14,55.6,55.7,1999512,Logements collectifs
15,42,38.5,2002402,Logements collectifs
16,80.4,57.5,2003208,Logements collectifs
17,80.4,57.5,2003208,Logements collectifs
18,80.4,57.5,2003208,Logements collectifs
19,79.7,59.1,2003208,Logements collectifs
20,79.9,59.3,2003208,Logements collectifs
21,47.9,57.5,2003305,Logements collectifs
22,17.9,79.2,2004183,Logements collectifs
24,36,45.5,2005890,Logements collectifs
25,44.9,57.5,2005890,Logements collectifs
26,51.6,57.6,2006286,Logements collectifs
27,47.1,49.5,2007056,Logements collectifs
28,42,47.7,2013262,Logements collectifs
30,44.7,47.2,2015089,Logements collectifs
31,64.4,64.8,2018960,Logements collectifs
32,71.4,74.3,2018960,Logements collectifs
33,62.3,63.3,2018960,Logements collectifs
34,61,62.5,2018960,Logements collectifs
35,23.4,44.9,2019309,Logements collectifs
36,21.9,41.9,2019490,Logements collectifs
37,21.9,46.4,2019513,Logements collectifs
39,40.5,43.2,2021901,Logements collectifs
40,62.9,45.9,2022731,Logements collectifs
41,52.3,75.5,2022739,Logements collectifs
42,62.7,50.4,2024404,Logements collectifs
43,62.6,49.8,2024404,Logements collectifs
44,62.6,49.8,2024404,Logements collectifs
45,53,48.1,2028498,Logements collectifs
46,25.3,46.2,2035051,Logements collectifs
47,60.3,57.9,2035572,Logements collectifs
48,57.3,65.2,2039085,Logements collectifs
49,30.8,37.3,2040775,Logements collectifs
50,27.9,40.1,2042510,Logements collectifs
51,52.4,65.6,2047364,Logements collectifs
52,51.2,67.7,2047364,Logements collectifs
55,41.8,43.7,2050026,Logements collectifs
56,41.3,43.9,2050026,Logements collectifs
57,41.3,43.5,2050027,Logements collectifs
58,40.8,43.2,2050027,Logements collectifs
59,43.1,49.4,2051150,Logements collectifs
60,39.6,41.6,2051188,Logements collectifs
61,48.5,55.5,2052527,Logements collectifs
62,25.6,69.2,2053043,Logements collectifs
63,24.3,68.7,2053043,Logements collectifs
64,36.7,64,2057075,Logements collectifs
65,41.3,66.2,2057075,Logements collectifs
66,51.7,64.4,2060843,Logements collectifs
67,53.2,54.5,2061251,Logements collectifs
68,52.2,52.8,2061251,Logements collectifs
69,55.6,52.7,2068117,Logements collectifs
70,30.8,36.1,2070127,Logements collectifs
71,16.9,47.4,2071574,Logements collectifs
72,63.7,71.4,2073630,Logements collectifs
73,105.5,76.6,2074076,Logements collectifs
74,105.5,76.6,2074076,Logements collectifs
76,65,51.7,2076568,Logements collectifs
77,76.2,53.9,2078251,Logements collectifs
78,66,67.1,2078978,Logements collectifs
79,50.7,43.5,2079447,Logements collectifs
80,50.1,44,2079447,Logements collectifs
81,44.1,44.6,2079479,Logements collectifs
82,42.9,46.7,2080507,Logements collectifs
83,23.5,47.9,2083726,Logements collectifs
84,49.2,56.4,2085716,Logements collectifs
85,46.5,59.2,2085716,Logements collectifs
86,22.4,48,2087411,Logements collectifs
87,29.4,41.9,2089509,Logements collectifs
88,53.4,60.7,2089509,Logements collectifs
89,48.7,56.1,2089509,Logements collectifs
90,48.5,55.8,2089509,Logements collectifs
92,54.5,70.5,2093247,Logements collectifs
93,25.9,45.6,2095019,Logements collectifs
94,34.9,76.4,2095144,Logements collectifs
95,54.1,63.1,2095282,Logements collectifs
96,44.1,49.9,2096607,Logements collectifs
97,46.1,47.6,2096607,Logements collectifs
98,60.4,59.9,2098346,Logements collectifs
99,56.2,54.1,2100461,Logements collectifs
100,59.2,57.5,2100461,Logements collectifs
101,67.7,65.3,2100461,Logements collectifs
102,64.2,62.9,2100461,Logements collectifs
103,57.5,78.9,2100842,Logements collectifs
104,49,50.6,2100929,Logements collectifs
105,55.6,75.8,2102219,Logements collectifs
106,42.4,62.6,2102378,Logements collectifs
107,40.6,75.3,2102378,Logements collectifs
108,36.3,67.2,2102378,Logements collectifs
110,63.3,46.5,2102942,Logements collectifs
111,22.7,42.6,2103969,Logements collectifs
113,75.5,68.3,2109241,Logements collectifs
114,23,40.5,2114424,Logements collectifs
115,24.7,40.3,2114432,Logements collectifs
116,44.3,75.7,2115746,Logements collectifs
118,59.8,60.8,2118278,Logements collectifs
119,52.5,48.5,2120401,Logements collectifs
120,52.4,53.7,2120401,Logements collectifs
122,58.2,69.5,2123198,Logements collectifs
123,64.7,63.8,2124223,Logements collectifs
124,60.6,60.6,2124223,Logements collectifs
126,48.9,47.4,2124656,Logements collectifs
127,48.9,47.4,2124656,Logements collectifs
128,70.3,69.2,2124911,Logements collectifs
129,32.9,38,2125934,Logements collectifs
130,47.6,47.6,2127330,Logements collectifs
131,43,45.7,2127347,Logements collectifs
132,31.5,42.7,2127609,Logements collectifs
133,44.5,52,2129176,Logements collectifs
134,53.1,56.3,2129176,Logements collectifs
135,59.4,62.9,2130098,Logements collectifs
136,58.7,62.5,2130098,Logements collectifs
137,53.3,77,2130857,Logements collectifs
138,59.5,80.3,2130857,Logements collectifs
139,68,85.4,2130857,Logements collectifs
140,49.8,45.3,2131004,Logements collectifs
142,62.1,61.3,2132424,Logements collectifs
143,62.1,64.9,2133266,Logements collectifs
144,54,62,2133266,Logements collectifs
145,29.8,47.5,2134268,Logements collectifs
147,47.8,47.5,2136480,Logements collectifs
148,25.7,48.7,2137764,Logements collectifs
149,25.3,46.4,2137764,Logements collectifs
150,38.3,45.1,2138472,Logements collectifs
151,36.8,47,2138474,Logements collectifs
153,36.4,46.3,2141038,Logements collectifs
154,35.2,45.1,2141042,Logements collectifs
155,55.5,71.7,2142279,Logements collectifs
156,71.2,68.7,2142411,Logements collectifs
157,44.3,41.9,2143149,Logements collectifs
158,75.4,62.8,2146000,Logements collectifs
159,75.7,63,2146156,Logements collectifs
160,61.7,58.7,2146335,Logements collectifs
161,58.7,55.7,2146335,Logements collectifs
162,56.6,56.7,2146335,Logements collectifs
163,56.6,55.9,2146335,Logements collectifs
164,64.9,57.4,2146339,Logements collectifs
165,76.6,64.1,2146339,Logements collectifs
166,82.4,81.9,2146339,Logements collectifs
167,76,82.3,2146339,Logements collectifs
168,62.1,64.3,2146610,Logements collectifs
169,59.6,63,2146610,Logements collectifs
170,63.5,66.8,2146628,Logements collectifs
171,67,60.2,2146836,Logements collectifs
172,44.5,72,2147362,Logements collectifs
173,33.7,53.7,2147747,Logements collectifs
174,50.8,54,2147790,Logements collectifs
176,50.2,72.2,2148792,Logements collectifs
177,42,70.8,2149709,Logements collectifs
178,55.7,54.4,2149831,Logements collectifs
179,51.1,56.5,2149892,Logements collectifs
180,53.9,57.2,2149913,Logements collectifs
181,52.7,56.3,2149913,Logements collectifs
182,65.6,61.6,2150197,Logements collectifs
183,39,41.3,2150750,Logements collectifs
184,48.7,70,2151459,Logements collectifs
185,50.4,45.7,2171529,Logements collectifs
186,32.1,47.6,2172503,Logements collectifs
187,53.3,53.4,2173879,Logements collectifs
188,60.6,59.6,2174028,Logements collectifs
189,42.1,42.4,2175994,Logements collectifs
190,27.9,40.5,2176674,Logements collectifs
191,49.8,56.9,2177389,Logements collectifs
192,28.1,74,2178157,Logements collectifs
193,42.6,48.1,2179808,Logements collectifs
194,42.5,46.7,2179808,Logements collectifs
195,46.6,53.6,2179808,Logements collectifs
196,57.7,67.7,2180317,Logements collectifs
198,74.4,69.4,2180616,Logements collectifs
199,26.6,35,2180882,Logements collectifs
200,27.5,34.8,2180883,Logements collectifs
201,50,48,2181975,Logements collectifs
202,51.1,53.3,2181975,Logements collectifs
203,20.1,37.1,2182121,Logements collectifs
204,28.8,43.3,2183331,Logements collectifs
205,35.9,48.7,2183555,Logements collectifs
206,53.3,63.2,2183600,Logements collectifs
207,61.8,59.2,2183600,Logements collectifs
208,66.1,62.4,2184360,Logements collectifs
209,38.1,47,2184464,Logements collectifs
210,46.2,51.7,2185126,Logements collectifs
211,54.5,53.7,2185126,Logements collectifs
212,33.7,55.4,2185473,Logements collectifs
213,31.9,61.9,2185473,Logements collectifs
214,41.7,48.5,2185698,Logements collectifs
215,59.5,61.1,2185852,Logements collectifs
216,44.5,48.9,2186149,Logements collectifs
217,49,51.1,2186705,Logements collectifs
218,35.3,48,2187743,Logements collectifs
219,23.3,39.3,2187743,Logements collectifs
220,26,39.9,2187743,Logements collectifs
221,80.3,52.6,2189811,Logements collectifs
222,55.7,47.9,2190356,Logements collectifs
223,45.7,70.4,2192266,Logements collectifs
224,30,38.7,2192481,Logements collectifs
225,34.9,38,2193480,Logements collectifs
227,27.7,38.7,2194609,Logements collectifs
228,42.9,48.5,2194788,Logements collectifs
229,50.7,70.2,2194827,Logements collectifs
230,74.7,76.4,2195941,Logements collectifs
231,79.2,79,2195941,Logements collectifs
232,76.9,69.1,2195993,Logements collectifs
233,45.1,35.5,2196302,Logements collectifs
234,48.5,52.7,2197184,Logements collectifs
235,48.5,50.5,2197216,Logements collectifs
236,56.8,58.1,2197235,Logements collectifs
237,67.4,67.3,2197309,Logements collectifs
238,78.4,72.4,2197309,Logements collectifs
239,39.2,43.9,2197761,Logements collectifs
240,39.3,47.8,2197761,Logements collectifs
241,68.4,63.2,2200086,Logements collectifs
242,63.6,61.6,2200086,Logements collectifs
243,63.4,60.5,2200086,Logements collectifs
244,60.7,56.1,2200086,Logements collectifs
245,61,56,2200086,Logements collectifs
246,63.5,60.8,2200086,Logements collectifs
247,61.7,56.6,2200086,Logements collectifs
248,65.1,58,2200086,Logements collectifs
249,68.5,63.2,2200086,Logements collectifs
250,56.2,41.6,2201837,Logements collectifs
251,43.1,68.1,2202037,Logements collectifs
252,51.2,48.3,2203072,Logements collectifs
253,45.6,48.6,2203072,Logements collectifs
254,56.9,53,2203415,Logements collectifs
256,55.5,65.9,2203473,Logements collectifs
257,52.7,57.7,2203473,Logements collectifs
258,52.3,54.4,2204496,Logements collectifs
259,47.9,52.4,2204683,Logements collectifs
260,42.7,53.9,2206270,Logements collectifs
261,65.7,54,2206328,Logements collectifs
262,33.6,40.9,2206703,Logements collectifs
263,44.5,54.5,2207819,Logements collectifs
264,38.8,47.3,2207846,Logements collectifs
265,40.3,49.6,2207846,Logements collectifs
267,36.6,44.9,2209488,Logements collectifs
268,37.1,41.5,2209488,Logements collectifs
269,40.1,37.2,2210025,Logements collectifs
270,60.9,64.4,2210507,Logements collectifs
271,34.1,47.1,2210653,Logements collectifs
272,32.2,43.2,2210653,Logements collectifs
273,62.9,64.8,2211189,Logements collectifs
274,60.3,65.3,2211189,Logements collectifs
275,37.3,43.6,2211545,Logements collectifs
277,72.2,71.2,2211647,Logements collectifs
278,72.9,73.8,2211647,Logements collectifs
279,38.8,69.5,2213432,Logements collectifs
280,42.6,73.7,2213432,Logements collectifs
281,69,65.6,2213688,Logements collectifs
282,33.7,58.2,2213873,Logements collectifs
283,47.4,53.1,2213986,Logements collectifs
284,57.9,53.2,2213986,Logements collectifs
285,52.8,50.9,2213986,Logements collectifs
286,48.3,53.3,2213986,Logements collectifs
288,25.2,35.5,2216070,Logements collectifs
289,40.4,53.5,2217450,Logements collectifs
291,46.2,43.6,2218377,Logements collectifs
292,47.9,44.7,2218379,Logements collectifs
293,58.1,56.3,2218380,Logements collectifs
294,47.3,59.9,2220437,Logements collectifs
295,60.6,66.2,2220437,Logements collectifs
296,53,50.4,2220560,Logements collectifs
298,58.9,61.6,2221184,Logements collectifs
299,40.4,48.5,2221302,Logements collectifs
300,71.4,70,2221323,Logements collectifs
302,24,44.4,2221754,Logements collectifs
304,39.9,37.7,2222784,Logements collectifs
305,33.5,36.3,2222784,Logements collectifs
306,47.8,68.7,2224910,Logements collectifs
307,46.1,71.4,2224910,Logements collectifs
308,45.1,67.4,2224910,Logements collectifs
309,60.7,64.1,2225017,Logements collectifs
310,65.5,69.7,2225017,Logements collectifs
311,62.2,57,2225017,Logements collectifs
312,38,42.2,2226799,Logements collectifs
313,67.2,62.6,2227048,Logements collectifs
314,65.2,64.8,2227106,Logements collectifs
315,63.5,68.2,2227106,Logements collectifs
316,79.6,72.3,2228344,Logements collectifs
317,35.2,53.4,2228855,Logements collectifs
318,61.5,66.1,2230614,Logements collectifs
319,74.3,66.6,2230632,Logements collectifs
320,53.5,50.1,2231745,Logements collectifs
321,62.5,49.3,2231885,Logements collectifs
322,60.2,59.1,2233449,Logements collectifs
323,31.3,45.2,2233499,Logements collectifs
324,29,43,2233499,Logements collectifs
325,47.4,57.9,2233669,Logements collectifs
326,52.7,56.9,2234032,Logements collectifs
327,51.2,55.5,2234032,Logements collectifs
328,34.9,47.6,2235077,Logements collectifs
329,34.8,47.6,2235093,Logements collectifs
331,40.7,44.5,2237149,Logements collectifs
332,50.9,48.4,2237149,Logements collectifs
333,47.9,53.7,2237349,Logements collectifs
334,35.6,43.4,2237654,Logements collectifs
335,48.4,50.5,2239651,Logements collectifs
336,46.3,47.3,2239651,Logements collectifs
337,56.3,58.6,2240055,Logements collectifs
338,45.7,46.7,2240705,Logements collectifs
339,40.2,44,2240705,Logements collectifs
340,53.5,77,2240966,Logements collectifs
341,53.5,69.2,2241372,Logements collectifs
342,18.9,34.2,2242030,Logements collectifs
343,19.4,35.4,2242030,Logements collectifs
344,19.4,35.7,2242030,Logements collectifs
345,41.5,43.6,2242040,Logements collectifs
347,68.7,70.3,2242428,Logements collectifs
348,30.3,49,2242830,Logements collectifs
349,68.2,52.3,2243722,Logements collectifs
350,68,52.2,2243722,Logements collectifs
351,67.4,51.3,2243722,Logements collectifs
352,67.5,51.5,2243722,Logements collectifs
353,43.8,50.4,2245453,Logements collectifs
354,39.8,52.1,2245501,Logements collectifs
355,52.4,50.6,2245747,Logements collectifs
356,51.2,49.1,2245747,Logements collectifs
357,37,44.6,2246085,Logements collectifs
358,50.9,64.4,2246149,Logements collectifs
359,53.5,46.1,2246165,Logements collectifs
360,54.7,59.6,2246169,Logements collectifs
362,41.1,44.2,2247882,Logements collectifs
364,53.5,50,2249767,Logements collectifs
365,41.4,62.3,2250153,Logements collectifs
366,37.4,63.5,2250153,Logements collectifs
367,27.3,47.6,2251328,Logements collectifs
368,37.5,55.6,2252336,Logements collectifs
369,38.4,45.2,2252692,Logements collectifs
370,35.1,43.3,2252692,Logements collectifs
371,46,50.1,2252692,Logements collectifs
372,65.6,59.8,2253021,Logements collectifs
373,63.5,65.1,2253021,Logements collectifs
374,23.3,43,2253216,Logements collectifs
375,23.8,41.6,2253216,Logements collectifs
377,63.5,50.4,2257138,Logements collectifs
378,63.5,50.4,2257138,Logements collectifs
379,64.7,53.4,2257138,Logements collectifs
380,68.8,57.1,2257138,Logements collectifs
381,60.4,54.6,2257671,Logements collectifs
382,70.5,62.7,2258270,Logements collectifs
383,51.6,48.7,2260131,Logements collectifs
384,65.3,55.6,2260131,Logements collectifs
385,58.6,52.7,2260131,Logements collectifs
386,51.7,49.2,2260131,Logements collectifs
387,51.4,49.4,2262119,Logements collectifs
388,49.7,62.3,2262861,Logements collectifs
389,50.6,63.1,2262861,Logements collectifs
390,66.5,56,2262955,Logements collectifs
391,46.1,48.1,2263683,Logements collectifs
392,59,62.9,2263702,Logements collectifs
393,59.7,63.5,2263889,Logements collectifs
394,51.5,58.3,2264739,Logements collectifs
395,50.9,58.2,2264942,Logements collectifs
396,62.3,60.3,2264942,Logements collectifs
397,67.7,75.4,2267805,Logements collectifs
398,65,61.7,2267805,Logements collectifs
399,65,59.8,2267813,Logements collectifs
400,57.3,50.7,2268441,Logements collectifs
401,56.4,55.1,2268441,Logements collectifs
402,55.3,54.6,2268441,Logements collectifs
403,70.6,71.6,2269368,Logements collectifs
404,71.5,63.3,2269750,Logements collectifs
405,64.2,63.6,2270828,Logements collectifs
406,43.7,42.5,2271141,Logements collectifs
407,53.5,54.7,2271141,Logements collectifs
408,52.4,55.3,2271141,Logements collectifs
409,69.9,65.9,2271921,Logements collectifs
411,52.8,71.2,2273620,Logements collectifs
412,47.3,53.1,2273723,Logements collectifs
413,55.2,57.5,2274805,Logements collectifs
414,55.4,53.3,2275388,Logements collectifs
415,50.6,57.4,2275388,Logements collectifs
416,40.9,48.2,2276106,Logements collectifs
417,32.8,44.6,2276106,Logements collectifs
418,69.2,66.7,2276826,Logements collectifs
419,36.2,48.2,2277046,Logements collectifs
420,59.6,68.1,2277061,Logements collectifs
421,24.7,45.1,2277489,Logements collectifs
422,40.1,58.9,2277653,Logements collectifs
424,44.4,57.6,2278511,Logements collectifs
425,50.5,54,2278511,Logements collectifs
426,60.3,64.7,2279229,Logements collectifs
427,60.7,64.6,2280033,Logements collectifs
429,23.6,46,2282102,Logements collectifs
431,50.2,55.1,2282803,Logements collectifs
432,55.8,58.5,2282803,Logements collectifs
433,57.3,64.5,2284046,Logements collectifs
434,70.8,64.8,2284046,Logements collectifs
435,19.9,46.3,2286627,Logements collectifs
436,58.5,61.5,2287015,Logements collectifs
438,37.4,42.4,2289480,Logements collectifs
439,50.9,56.5,2289480,Logements collectifs
440,59,72.7,2292294,Logements collectifs
441,48.6,52.4,2292308,Logements collectifs
442,51.1,52.6,2292758,Logements collectifs
443,24,46.2,2294065,Logements collectifs
444,46,43.8,2294896,Logements collectifs
445,44.8,44.3,2294896,Logements collectifs
446,86.5,79.4,2296038,Logements collectifs
447,64.6,59.8,2296686,Logements collectifs
448,49.2,60.4,2296970,Logements collectifs
449,63.4,66.1,2296970,Logements collectifs
450,26.9,40.1,2297032,Logements collectifs
451,19.2,40.6,2297336,Logements collectifs
452,16.5,37,2297336,Logements collectifs
453,57.9,52.8,2297742,Logements collectifs
454,20,43.1,2298683,Logements collectifs
455,21.2,47.7,2298683,Logements collectifs
456,30.7,44.3,2299101,Logements collectifs
457,44.7,52.3,2299379,Logements collectifs
458,43,47.2,2299379,Logements collectifs
459,42.3,52.9,2299550,Logements collectifs
460,79.8,74.1,2300259,Logements collectifs
461,43.5,46.7,2300610,Logements collectifs
462,39.7,43.6,2300612,Logements collectifs
464,49.3,57.2,2302286,Logements collectifs
465,60,47.2,2302510,Logements collectifs
466,61.2,48.3,2302510,Logements collectifs
467,49.3,57.8,2304238,Logements collectifs
468,54.6,53.8,2306400,Logements collectifs
469,30,47.2,2306819,Logements collectifs
470,29.1,45.2,2307631,Logements collectifs
471,53.7,70.3,2308788,Logements collectifs
472,46.2,64.9,2308788,Logements collectifs
474,73.7,57.7,2309694,Logements collectifs
475,74.1,64.1,2309694,Logements collectifs
476,74.1,64.1,2309694,Logements collectifs
477,75.1,65.9,2309694,Logements collectifs
478,53.7,76.7,2309991,Logements collectifs
479,55.5,57.7,2310279,Logements collectifs
480,48.9,60.5,2310797,Logements collectifs
481,47.7,60.5,2310797,Logements collectifs
482,48.7,59.8,2310797,Logements collectifs
483,55,65.1,2310924,Logements collectifs
484,60.5,70.4,2310924,Logements collectifs
485,61.9,59,2310940,Logements collectifs
486,62.1,68.4,2310940,Logements collectifs
487,61.9,62.2,2310940,Logements collectifs
488,57.9,48.6,2311466,Logements collectifs
489,54.7,48.1,2311484,Logements collectifs
490,19.9,33.5,2312376,Logements collectifs
491,35.3,42.4,2312943,Logements collectifs
492,56,65,2313643,Logements collectifs
493,69.4,51.1,2313653,Logements collectifs
494,23.6,34.3,2313985,Logements collectifs
495,30.5,46.9,2318536,Logements collectifs
496,40.2,42.5,2318555,Logements collectifs
497,46.1,48.7,2318587,Logements collectifs
498,48.5,48,2318889,Logements collectifs
499,69,70.3,2320325,Logements collectifs
500,50.5,68,2320783,Logements collectifs
501,55.8,59.1,2321379,Logements collectifs
502,54.3,60.5,2321379,Logements collectifs
503,53.3,60.4,2321379,Logements collectifs
504,30.2,57.3,2321383,Logements collectifs
505,63.5,71.2,2323681,Logements collectifs
506,55.8,71.5,2323762,Logements collectifs
507,50.8,61.6,2324053,Logements collectifs
508,54.8,60.4,2324053,Logements collectifs
511,48.4,54.2,2325501,Logements collectifs
512,46.1,59.5,2325501,Logements collectifs
513,42.7,55.8,2326666,Logements collectifs
514,43.5,54.9,2327144,Logements collectifs
515,48.5,45.1,2327677,Logements collectifs
516,68.4,59.1,2328904,Logements collectifs
517,46,44.7,2328905,Logements collectifs
518,68.6,66.5,2329103,Logements collectifs
519,66.9,64.9,2329103,Logements collectifs
520,43.7,50.2,2329739,Logements collectifs
521,69.2,59.3,2330266,Logements collectifs
522,58.3,68.1,2331297,Logements collectifs
523,45.9,47.7,2331444,Logements collectifs
524,39.2,49.5,2332158,Logements collectifs
525,66.8,58.3,2332158,Logements collectifs
526,62.4,64.4,2332158,Logements collectifs
527,67.3,58.4,2332158,Logements collectifs
529,56.8,54.9,2336203,Logements collectifs
530,61.5,69.8,2336370,Logements collectifs
531,48.6,56.5,2336370,Logements collectifs
532,25.3,47.3,2336707,Logements collectifs
534,99.6,75.9,2337860,Logements collectifs
535,81.9,74.5,2338182,Logements collectifs
536,63.8,59.9,2338583,Logements collectifs
537,59.5,57.4,2339270,Logements collectifs
538,41.5,44.1,2339852,Logements collectifs
539,52.9,46.2,2339852,Logements collectifs
540,55,49.7,2339852,Logements collectifs
541,62.6,64.5,2343417,Logements collectifs
542,44.1,40.3,2344508,Logements collectifs
543,41.5,38.8,2344508,Logements collectifs
544,62.8,59.4,2344775,Logements collectifs
545,59.9,54.5,2344775,Logements collectifs
546,56.5,55,2344775,Logements collectifs
547,47.8,67.3,2345270,Logements collectifs
548,50,56.5,2345280,Logements collectifs
549,40.8,55.2,2345287,Logements collectifs
550,23.8,32.2,2345305,Logements collectifs
552,72.3,65,2345769,Logements collectifs
553,68.8,64.5,2345769,Logements collectifs
554,60.6,59.4,2345769,Logements collectifs
555,22,38.1,2346335,Logements collectifs
556,45.6,65.6,2349014,Logements collectifs
557,63,71,2349067,Logements collectifs
558,54,63.7,2349067,Logements collectifs
559,29.3,49.3,2349245,Logements collectifs
560,17.9,38.2,2349278,Logements collectifs
561,32.2,42.1,2349782,Logements collectifs
562,22,38.1,2350203,Logements collectifs
563,33.6,40,2350738,Logements collectifs
565,61.7,57.7,2352258,Logements collectifs
566,34.2,66.6,2353528,Logements collectifs
567,54,63.4,2353836,Logements collectifs
568,72.6,67.7,2353837,Logements collectifs
569,32.1,79.2,2353922,Logements collectifs
570,42.1,50.1,2355109,Logements collectifs
571,51.1,70.1,2355247,Logements collectifs
572,51.1,70.1,2355324,Logements collectifs
573,54.6,70.5,2355348,Logements collectifs
575,69.5,71.8,2355912,Logements collectifs
576,64.7,54.3,2355996,Logements collectifs
577,68.6,61.5,2355996,Logements collectifs
578,32.9,41.4,2356112,Logements collectifs
579,33.7,41,2356112,Logements collectifs
580,58.4,61.5,2356695,Logements collectifs
581,57.6,61.2,2356695,Logements collectifs
582,57.1,72.7,2357924,Logements collectifs
583,25.5,49,2358540,Logements collectifs
584,65.3,70.7,2359581,Logements collectifs
585,50.9,55.4,2359787,Logements collectifs
586,44.8,52.4,2359818,Logements collectifs
588,34.1,65.7,2361432,Logements collectifs
589,48.2,55.7,2361760,Logements collectifs
590,28.4,56.6,2363039,Logements collectifs
591,52.9,59.5,2363813,Logements collectifs
592,57.2,60.4,2363813,Logements collectifs
593,49,61.1,2363813,Logements collectifs
594,67.6,68.8,2364321,Logements collectifs
595,51,54.6,2364321,Logements collectifs
596,53,50.8,2364463,Logements collectifs
597,51.1,50.9,2364808,Logements collectifs
598,45.8,40.5,2364939,Logements collectifs
599,51.9,48.7,2365223,Logements collectifs
600,50.5,49.8,2365223,Logements collectifs
601,49.1,52,2366985,Logements collectifs
602,69.2,59.4,2367453,Logements collectifs
603,40.7,43.8,2367818,Logements collectifs
604,54.2,52.5,2367871,Logements collectifs
606,25.4,55.4,2370683,Logements collectifs
607,45.4,67.7,2370690,Logements collectifs
608,61.5,68.1,2372020,Logements collectifs
609,29.7,34.6,2372615,Logements collectifs
610,23.5,42.5,2372624,Logements collectifs
611,58.8,65.4,2372977,Logements collectifs
612,64.4,73,2372977,Logements collectifs
613,63.7,61.2,2373748,Logements collectifs
614,28.3,43.7,2373772,Logements collectifs
615,77.3,85.5,2374471,Logements collectifs
616,68.1,78.6,2374471,Logements collectifs
617,23.7,43.6,2374591,Logements collectifs
618,20.7,39.1,2374591,Logements collectifs
619,68.3,64.2,2374915,Logements collectifs
620,44.8,44.1,2375195,Logements collectifs
621,47.2,49.8,2375195,Logements collectifs
622,51.6,50.8,2376142,Logements collectifs
623,64.5,66.7,2376251,Logements collectifs
624,60,58.4,2376305,Logements collectifs
625,71.1,65.1,2376305,Logements collectifs
626,53.8,59.4,2377569,Logements collectifs
627,51.6,49.9,2378431,Logements collectifs
628,51.6,49.9,2378503,Logements collectifs
629,66.4,61,2378623,Logements collectifs
630,58,61.6,2378798,Logements collectifs
631,79.2,70.1,2379114,Logements collectifs
632,87.5,69.3,2379114,Logements collectifs
633,79.8,70.3,2379182,Logements collectifs
634,88.1,69.6,2379182,Logements collectifs
635,26.2,42.3,2380723,Logements collectifs
636,21.2,40.7,2380723,Logements collectifs
637,63.1,64.3,2380967,Logements collectifs
638,68.9,60,2380967,Logements collectifs
639,45.5,69.1,2381052,Logements collectifs
640,27.3,39.4,2381183,Logements collectifs
641,40,44.4,2381721,Logements collectifs
642,58.6,67.6,2381973,Logements collectifs
643,66.2,61,2382869,Logements collectifs
644,37.4,47,2382879,Logements collectifs
645,39.9,48.9,2382879,Logements collectifs
646,24.7,41.1,2382925,Logements collectifs
647,20.9,45.2,2383106,Logements collectifs
648,47.8,53.3,2383626,Logements collectifs
649,21.3,46.9,2384014,Logements collectifs
650,62.7,61.1,2384614,Logements collectifs
652,56.2,60.9,2386743,Logements collectifs
653,48,48.8,2386886,Logements collectifs
655,42.1,51.1,2387811,Logements collectifs
656,50.8,55.4,2387811,Logements collectifs
658,44,61.5,2388957,Logements collectifs
659,39.7,40.9,2393163,Logements collectifs
661,39.3,49.6,2394051,Logements collectifs
662,49.7,54.8,2394051,Logements collectifs
663,17.5,43.5,2394622,Logements collectifs
664,19.6,36.2,2395854,Logements collectifs
665,30.4,49.9,2396243,Logements collectifs
666,66.9,64,2396312,Logements collectifs
667,54.8,65.3,2397492,Logements collectifs
668,75.1,62.5,2399232,Logements collectifs
669,49.5,64.2,2399656,Logements collectifs
670,84.4,78.2,2400819,Logements collectifs
671,58.9,65.7,2401981,Logements collectifs
672,21.1,34.2,2402253,Logements collectifs
673,49.5,57.5,2402357,Logements collectifs
674,56.6,65.3,2402358,Logements collectifs
675,66.2,65.1,2402539,Logements collectifs
676,64.4,64.1,2402539,Logements collectifs
678,40.6,56.8,2404712,Logements collectifs
680,69.2,64.5,2405353,Logements collectifs
681,82.1,79.7,2405851,Logements collectifs
682,82.9,80.1,2405851,Logements collectifs
683,41.4,60.4,2405860,Logements collectifs
684,35,53,2405873,Logements collectifs
685,62.5,67.5,2407668,Logements collectifs
686,68.9,65.5,2407668,Logements collectifs
687,53.3,51.3,2407894,Logements collectifs
688,65.6,65.4,2408006,Logements collectifs
689,44.2,38.9,2408667,Logements collectifs
690,43.4,38.4,2408667,Logements collectifs
691,50.5,41.2,2408667,Logements collectifs
692,33.5,44.8,2408767,Logements collectifs
694,67.6,62.9,2410974,Logements collectifs
695,46.7,61.1,2411365,Logements collectifs
696,19.4,43,2411383,Logements collectifs
697,22.9,47.4,2411383,Logements collectifs
698,50.8,41.5,2411843,Logements collectifs
699,74.4,58.1,2412095,Logements collectifs
700,74.5,58.1,2412095,Logements collectifs
701,70.6,56.1,2412095,Logements collectifs
702,69.4,55.5,2412095,Logements collectifs
703,63.7,57.9,2412448,Logements collectifs
704,60.1,58.5,2413265,Logements collectifs
705,82.7,65.3,2413858,Logements collectifs
706,42.8,59.5,2414193,Logements collectifs
707,58.7,66.9,2414705,Logements collectifs
708,54.8,75.5,2414742,Logements collectifs
709,23.8,49.2,2415216,Logements collectifs
710,43.1,58.6,2415874,Logements collectifs
711,37.9,39.2,2417056,Logements collectifs
712,66.5,58.7,2418743,Logements collectifs
713,68.4,61.3,2418743,Logements collectifs
714,63.1,59.7,2418743,Logements collectifs
715,52.1,50.8,2420038,Logements collectifs
716,57.1,55,2420215,Logements collectifs
717,60,70.1,2420933,Logements collectifs
720,24,33.6,2421464,Logements collectifs
722,61.3,58.4,2422508,Logements collectifs
723,49.9,60.7,2422516,Logements collectifs
724,67.8,67.8,2423204,Logements collectifs
725,47.8,78.4,2423518,Logements collectifs
726,45.3,76.8,2423518,Logements collectifs
727,47,76.8,2423518,Logements collectifs
728,60.9,56.7,2424479,Logements collectifs
729,57.2,60.9,2426355,Logements collectifs
730,58,73.8,2427996,Logements collectifs
731,44.3,41.7,2430334,Logements collectifs
732,58.7,70.1,2430683,Logements collectifs
733,25.7,41.6,2430828,Logements collectifs
734,23.4,39.5,2430829,Logements collectifs
735,23.6,36.7,2430830,Logements collectifs
737,85,65.1,2431106,Logements collectifs
738,68.1,78.6,2432979,Logements collectifs
739,43,44.7,2433073,Logements collectifs
740,61.8,50.2,2433121,Logements collectifs
741,69.2,55.3,2433121,Logements collectifs
742,76.2,79.3,2434342,Logements collectifs
743,53.9,52.8,2434380,Logements collectifs
744,53.9,52.8,2434380,Logements collectifs
745,69.7,63.2,2435423,Logements collectifs
746,65.4,60.1,2438519,Logements collectifs
747,64.9,44.4,2438558,Logements collectifs
748,44.3,48.8,2438587,Logements collectifs
749,63.3,64.8,2438637,Logements collectifs
750,62.9,62.6,2438637,Logements collectifs
751,63.2,61.6,2438637,Logements collectifs
752,33.1,40.7,2438937,Logements collectifs
753,51.9,55.3,2439385,Logements collectifs
754,55.9,58.9,2439385,Logements collectifs
756,36,60.2,2440836,Logements collectifs
757,77.6,70.3,2441033,Logements collectifs
759,50.4,78.4,2441333,Logements collectifs
760,42.7,63,2441333,Logements collectifs
761,52.9,49.1,2441427,Logements collectifs
762,57.1,54.6,2441738,Logements collectifs
763,42.9,63,2443592,Logements collectifs
764,46.2,55.4,2443832,Logements collectifs
765,40.2,61.3,2444087,Logements collectifs
766,54.4,59.5,2444610,Logements collectifs
767,67.2,63.3,2445466,Logements collectifs
768,64.7,57.1,2445484,Logements collectifs
769,62.9,56.8,2445484,Logements collectifs
770,45.8,53.8,2445694,Logements collectifs
771,43.6,52.6,2445704,Logements collectifs
772,24,42.7,2446914,Logements collectifs
773,18.1,36.9,2446976,Logements collectifs
774,18.9,37.4,2447012,Logements collectifs
775,23.9,42.7,2447026,Logements collectifs
777,69.8,58.4,2447375,Logements collectifs
778,50.4,57.9,2447901,Logements collectifs
780,41,59.6,2448839,Logements collectifs
781,61.1,54.8,2449125,Logements collectifs
782,73.5,60.7,2449125,Logements collectifs
783,53.2,63.8,2449328,Logements collectifs
784,55.9,58.6,2449356,Logements collectifs
785,59.1,62.9,2451389,Logements collectifs
786,44.1,59.3,2451824,Logements collectifs
787,73.6,63.4,2452388,Logements collectifs
788,74.6,62.3,2452388,Logements collectifs
789,48.2,49.4,2452590,Logements collectifs
790,33.1,51.3,2452691,Logements collectifs
791,50.6,59.8,2453053,Logements collectifs
792,54,62.4,2453053,Logements collectifs
793,56,52.5,2453091,Logements collectifs
794,45.3,50.2,2453297,Logements collectifs
795,56,58.9,2454013,Logements collectifs
796,53.9,57,2454013,Logements collectifs
797,52.5,65.4,2454013,Logements collectifs
798,47.4,68.2,2454013,Logements collectifs
799,44.7,63.3,2454013,Logements collectifs
800,52.9,48.5,2454014,Logements collectifs
801,32,38,2455635,Logements collectifs
802,32.9,39.5,2455637,Logements collectifs
803,56.5,54.9,2456036,Logements collectifs
805,40.5,46.9,2457084,Logements collectifs
806,64.6,66.8,2457277,Logements collectifs
807,44.3,51.2,2457765,Logements collectifs
808,40,41.6,2458566,Logements collectifs
810,41.4,42.3,2460321,Logements collectifs
811,42.5,43.9,2460321,Logements collectifs
812,42.2,51.5,2460457,Logements collectifs
813,61.9,75.1,2460570,Logements collectifs
814,27.4,39.2,2460839,Logements collectifs
815,53.4,57.8,2461028,Logements collectifs
816,49.6,57.5,2461028,Logements collectifs
817,35.3,48.2,2461081,Logements collectifs
818,34.6,47.7,2461081,Logements collectifs
819,24,33.9,2461371,Logements collectifs
820,55.2,57.9,2462496,Logements collectifs
821,45.7,50.5,2463883,Logements collectifs
822,45.2,49.4,2463883,Logements collectifs
823,50.3,46.1,2465148,Logements collectifs
824,57.1,58.5,2465148,Logements collectifs
825,55.9,54.9,2465148,Logements collectifs
826,57.4,56.4,2465220,Logements collectifs
827,60.7,62,2465225,Logements collectifs
828,51.6,60.2,2465243,Logements collectifs
829,19.3,38.3,2465404,Logements collectifs
830,32.7,61.1,2465439,Logements collectifs
831,67,58,2465901,Logements collectifs
832,23.9,44.9,2465911,Logements collectifs
833,30.6,79.5,2466869,Logements collectifs
834,47.2,47,2467377,Logements collectifs
835,33.8,51.6,2467487,Logements collectifs
836,49.8,55.9,2467847,Logements collectifs
837,56.3,79.8,2468554,Logements collectifs
839,30.5,79.5,2469156,Logements collectifs
840,101.4,78.4,2469377,Logements collectifs
841,101.2,78.2,2469377,Logements collectifs
842,100.7,78,2469377,Logements collectifs
843,72.1,70.4,2469697,Logements collectifs
844,67.2,68.7,2469715,Logements collectifs
845,45.4,49.6,2469741,Logements collectifs
846,53.7,49.6,2470276,Logements collectifs
847,40.5,58.6,2470555,Logements collectifs
848,66,68.1,2470694,Logements collectifs
849,65.6,67.7,2470695,Logements collectifs
850,64.8,58.4,2471093,Logements collectifs
851,62.9,53,2471093,Logements collectifs
852,64.1,63.1,2471653,Logements collectifs
853,51.8,60.9,2474032,Logements collectifs
854,41.3,44.5,2474035,Logements collectifs
855,37.6,43.5,2475621,Logements collectifs
856,72.6,72,2476065,Logements collectifs
857,52.4,49.6,2476522,Logements collectifs
858,52.7,51.4,2476522,Logements collectifs
859,59.8,60.1,2477201,Logements collectifs
860,61.7,56.4,2477201,Logements collectifs
861,61.7,56.4,2477201,Logements collectifs
862,39.8,44.3,2478184,Logements collectifs
863,26.1,34,2478184,Logements collectifs
864,79.4,66.1,2479966,Logements collectifs
865,48.3,64.7,2481579,Logements collectifs
866,70.7,70.1,2482022,Logements collectifs
867,79.8,80.4,2482022,Logements collectifs
868,29.8,78,2482851,Logements collectifs
869,74,76.3,2482984,Logements collectifs
870,35.3,43.2,2483110,Logements collectifs
871,42.3,60.6,2484245,Logements collectifs
872,46.9,44.7,2485413,Logements collectifs
873,53.4,56.8,2485413,Logements collectifs
874,52.7,53.6,2485413,Logements collectifs
875,88.1,73.3,2486369,Logements collectifs
876,49.1,49,2487212,Logements collectifs
877,73.1,78.1,2487827,Logements collectifs
878,55.1,42.7,2489146,Logements collectifs
879,53.4,41.1,2489146,Logements collectifs
880,55.9,42,2489146,Logements collectifs
881,40.9,67.1,2491394,Logements collectifs
882,57.1,56.9,2492672,Logements collectifs
883,68.1,65.9,2492828,Logements collectifs
885,50.5,59,2494698,Logements collectifs
886,56.6,57.4,2494872,Logements collectifs
887,56.6,56.1,2494872,Logements collectifs
888,38.7,48.5,2494872,Logements collectifs
889,45.7,51,2494907,Logements collectifs
890,47.9,50.8,2494907,Logements collectifs
891,49.6,60,2495515,Logements collectifs
892,20.1,40.4,2496703,Logements collectifs
893,69.9,42.8,2497142,Logements collectifs
894,75.2,77.8,2497448,Logements collectifs
895,62.6,55.4,2498495,Logements collectifs
896,43.4,49.5,2499031,Logements collectifs
897,35.1,40.7,2499031,Logements collectifs
898,40.1,44.8,2499797,Logements collectifs
899,40.1,44.8,2499797,Logements collectifs
900,40.1,44.8,2499797,Logements collectifs
901,64.6,67.2,2500319,Logements collectifs
902,45,52.9,2500665,Logements collectifs
903,60.3,59,2501230,Logements collectifs
904,23.3,43,2501660,Logements collectifs
905,23.5,41,2501660,Logements collectifs
906,49.4,50.3,2501734,Logements collectifs
907,52,53.7,2501734,Logements collectifs
908,60.8,58.1,2501876,Logements collectifs
909,40.1,44.8,2502922,Logements collectifs
910,40.1,44.8,2502922,Logements collectifs
911,40.1,44.8,2502922,Logements collectifs
912,37.3,61.5,2503158,Logements collectifs
913,43.2,68.3,2503158,Logements collectifs
914,57.4,77.6,2506464,Logements collectifs
915,56.4,67.7,2510044,Logements collectifs
916,324.8,322.6,2510044,Logements collectifs
917,53.2,67.2,2510947,Logements collectifs
918,52,39.9,2512041,Logements collectifs
919,35.2,38.7,2512374,Logements collectifs
920,63.2,62.1,2512374,Logements collectifs
921,33.9,41,2512585,Logements collectifs
922,36.6,47.1,2512585,Logements collectifs
923,41.3,46.2,2512585,Logements collectifs
924,41.3,46.2,2512585,Logements collectifs
925,35.2,51.5,2513546,Logements collectifs
926,35.2,51.5,2513582,Logements collectifs
927,66.9,67.4,2513667,Logements collectifs
928,28,43.9,2513848,Logements collectifs
929,72.3,65,2514366,Logements collectifs
930,68.8,64.5,2514366,Logements collectifs
931,60.6,59.4,2514366,Logements collectifs
932,33.7,44,2514417,Logements collectifs
933,40.7,63.7,2514706,Logements collectifs
934,34.6,51.2,2514819,Logements collectifs
935,30.4,49.8,2514839,Logements collectifs
936,35.2,51.5,2515261,Logements collectifs
938,45.2,55.5,2517252,Logements collectifs
939,48.1,55.6,2517252,Logements collectifs
940,47.8,55.4,2517252,Logements collectifs
942,54.8,55.1,2518011,Logements collectifs
943,68.8,71.5,2519131,Logements collectifs
944,33.7,49.8,2519583,Logements collectifs
945,56.3,63.1,2520389,Logements collectifs
946,56.3,63.1,2520492,Logements collectifs
947,31.8,46.1,2521246,Logements collectifs
949,60.7,64.5,2521930,Logements collectifs
950,65.5,70.1,2521930,Logements collectifs
951,62.2,57.5,2521930,Logements collectifs
952,65.9,58.2,2522365,Logements collectifs
